{
	"reporters": [
		"spec",
		"result",
		"stats",
		"html",
		"allure",
		"xunit"
	],

	"testDiscovery": [
		"trial.discovery.unit.UnitTestDiscovery",
		"trial.discovery.spec.SpecTestDiscovery"
	],
	"artifactsLocation": ".trial",
	"maxThreads": 1
}
